%YAML 1.1
%TAG !u! tag:unity3d.com,2011:
--- !u!1045 &1
EditorBuildSettings:
  m_ObjectHideFlags: 0
  serializedVersion: 2
  m_Scenes:
  - enabled: 1
    path: Assets/Menu.unity
    guid: 0edb196c7b019b24b8bf529c8eb51cd2
  - enabled: 1
    path: Assets/Gameplay.unity
    guid: 26f0b52eaa22a104791a52f265c1d910
